<?xml version="1.0" encoding="utf-8"?>
<!-- Generator: Adobe Illustrator 16.0.0, SVG Export Plug-In . SVG Version: 6.00 Build 0)  -->
<!DOCTYPE svg PUBLIC "-//W3C//DTD SVG 1.1//EN" "http://www.w3.org/Graphics/SVG/1.1/DTD/svg11.dtd">
<svg version="1.1" id="Layer_1" xmlns="http://www.w3.org/2000/svg" xmlns:xlink="http://www.w3.org/1999/xlink" x="0px" y="0px"
	 width="574.429px" height="574.429px" viewBox="0 0 574.429 574.429" enable-background="new 0 0 574.429 574.429"
	 xml:space="preserve">
<g>
	<path d="M299.284,486.527l17.422,3.335l-42.012,36.186l-117.725-8.77l-77.04-89.447l8.771-117.722l63.472-54.673l0.537,13.252
		l64.531,12.356l38.517-42.196l40.11,2.99l16.284,18.904L138.368,384.896l-7.399,74.312l74.587,3.693l148.532-153.466l18.818,21.849
		l-4.526,60.771l-70.991,47.644L299.284,486.527z M156.979,206.551l1.75,43.239l0.535,13.251l55.526,10.634l32.372-35.466
		L464.367,0.25L156.979,206.551z M367.739,400.646l-63.423,42.568l1.521,37.665l17.422,3.335l19.603,3.754L509.27,305.66
		L367.739,400.646z M316.593,265.9L144.81,388.625l-6.39,64.164l64.402,3.189l146.825-151.702l194.438-200.896L316.593,265.9z"/>
	<path d="M235.467,563.582c-97.458,6.226-181.509-67.73-187.734-165.188c-1.349-21.121,1.069-41.609,6.676-60.814
		c-16.943,26.58-25.911,58.585-23.746,92.455c5.421,84.852,78.602,149.246,163.458,143.826c16.835-1.076,32.859-4.827,47.699-10.799
		C239.713,563.271,237.597,563.446,235.467,563.582z"/>
</g>
</svg>
